# This file uses centimeters as units for non-parametric coordinates.

v -1.161190 0.000001 -6.914495
v 1.223414 0.000001 -6.898439
v 3.333341 0.000001 -6.151628
v 5.405607 2.454589 -0.023430
v 6.700235 0.000000 -1.889892
v 6.946591 0.000000 0.135111
v 5.405607 2.454589 -0.023430
v 6.602833 0.000000 2.122667
v 6.946591 0.000000 0.135111
v 4.646107 2.949916 1.703235
v 5.405607 2.454589 -0.023430
v 6.602833 0.000000 2.122667
v 4.013135 3.465327 -2.053706
v 5.922129 0.000001 -3.685086
v 6.700235 0.000000 -1.889892
v 4.013135 3.465327 -2.053706
v 5.405607 2.454589 -0.023430
v 6.700235 0.000000 -1.889892
v 4.646107 2.949916 1.703235
v 6.049458 -0.000001 3.377830
v 6.602833 0.000000 2.122667
v 4.272102 3.008319 3.028880
v 4.646107 2.949916 1.703235
v 6.049458 -0.000001 3.377830
v 3.896685 0.864746 -3.364664
v 4.013135 3.465327 -2.053706
v 5.922129 0.000001 -3.685086
v 4.272102 3.008319 3.028880
v 4.904550 -0.000001 4.869517
v 6.049458 -0.000001 3.377830
v 3.896685 0.864746 -3.364664
v 4.904550 0.000001 -4.974404
v 5.922129 0.000001 -3.685086
v 2.675366 1.979327 -1.418692
v 4.013135 3.465327 -2.053706
v 5.405607 2.454589 -0.023430
v 2.763860 2.520633 0.883699
v 4.646107 2.949916 1.703235
v 5.405607 2.454589 -0.023430
v 2.675366 1.979327 -1.418692
v 2.763860 2.520633 0.883699
v 5.405607 2.454589 -0.023430
v 2.763860 2.520633 0.883699
v 3.622429 2.685743 1.845336
v 4.646107 2.949916 1.703235
v 2.930614 3.597588 4.102531
v 4.272102 3.008319 3.028880
v 4.904550 -0.000001 4.869517
v 3.622429 2.685743 1.845336
v 4.272102 3.008319 3.028880
v 4.646107 2.949916 1.703235
v 3.333341 0.000001 -6.151628
v 3.896685 0.864746 -3.364664
v 4.904550 0.000001 -4.974404
v 2.930614 3.597588 4.102531
v 3.636481 -0.000001 5.884440
v 4.904550 -0.000001 4.869517
v 2.631128 2.466182 2.187050
v 3.622429 2.685743 1.845336
v 4.272102 3.008319 3.028880
v 2.631128 2.466182 2.187050
v 2.930614 3.597588 4.102531
v 4.272102 3.008319 3.028880
v 0.243229 0.864746 -4.278030
v 3.333341 0.000001 -6.151628
v 3.896685 0.864746 -3.364664
v 2.675366 1.979327 -1.418692
v 3.896685 0.864746 -3.364664
v 4.013135 3.465327 -2.053706
v 0.243229 0.864746 -4.278030
v 0.301763 0.502862 -5.234901
v 3.333341 0.000001 -6.151628
v 0.243229 0.864746 -4.278030
v 1.156592 2.318513 -2.432807
v 3.896685 0.864746 -3.364664
v 1.156592 2.318513 -2.432807
v 2.675366 1.979327 -1.418692
v 3.896685 0.864746 -3.364664
v 1.806779 -0.000001 6.676031
v 2.930614 3.597588 4.102531
v 3.636481 -0.000001 5.884440
v 2.631128 2.466182 2.187050
v 2.763860 2.520633 0.883699
v 3.622429 2.685743 1.845336
v 2.131975 2.599288 2.271156
v 2.631128 2.466182 2.187050
v 2.930614 3.597588 4.102531
v 0.301763 0.502862 -5.234901
v 1.223414 0.000001 -6.898439
v 3.333341 0.000001 -6.151628
v 0.857711 2.053589 4.056189
v 1.806779 -0.000001 6.676031
v 2.930614 3.597588 4.102531
v 2.001776 2.615405 1.249576
v 2.631128 2.466182 2.187050
v 2.763860 2.520633 0.883699
v 2.001776 2.615405 1.249576
v 2.675366 1.979327 -1.418692
v 2.763860 2.520633 0.883699
v 0.002271 4.496058 -0.296651
v 2.001776 2.615405 1.249576
v 2.675366 1.979327 -1.418692
v 0.857711 2.053589 4.056189
v 2.131975 2.599288 2.271156
v 2.930614 3.597588 4.102531
v 0.759312 2.318844 2.781485
v 0.857711 2.053589 4.056189
v 2.131975 2.599288 2.271156
v 2.001776 2.615405 1.249576
v 2.131975 2.599288 2.271156
v 2.631128 2.466182 2.187050
v 0.002271 4.496058 -0.296651
v 1.156592 2.318513 -2.432807
v 2.675366 1.979327 -1.418692
v 0.222956 -0.000001 6.914493
v 0.857711 2.053589 4.056189
v 1.806779 -0.000001 6.676031
v -0.202117 4.014509 0.583907
v 0.002271 4.496058 -0.296651
v 2.001776 2.615405 1.249576
v 0.759467 2.855066 1.865328
v 2.001776 2.615405 1.249576
v 2.131975 2.599288 2.271156
v -0.271284 2.862906 4.437014
v 0.222956 -0.000001 6.914493
v 0.857711 2.053589 4.056189
v 0.759312 2.318844 2.781485
v 0.759467 2.855066 1.865328
v 2.131975 2.599288 2.271156
v -0.202117 4.014509 0.583907
v 0.759467 2.855066 1.865328
v 2.001776 2.615405 1.249576
v -0.196278 0.864746 -2.642221
v 0.243229 0.864746 -4.278030
v 1.156592 2.318513 -2.432807
v -0.196278 0.864746 -2.642221
v 0.002271 4.496058 -0.296651
v 1.156592 2.318513 -2.432807
v 0.013192 1.592100 3.508177
v 0.759312 2.318844 2.781485
v 0.857711 2.053589 4.056189
v -1.161190 0.000001 -6.914495
v 0.301763 0.502862 -5.234901
v 1.223414 0.000001 -6.898439
v -0.271284 2.211209 2.558194
v 0.759312 2.318844 2.781485
v 0.759467 2.855066 1.865328
v -0.876320 2.186790 1.289819
v -0.202117 4.014509 0.583907
v 0.759467 2.855066 1.865328
v -0.271284 2.862906 4.437014
v 0.013192 1.592100 3.508177
v 0.857711 2.053589 4.056189
v -0.876320 2.186790 1.289819
v -0.619615 2.331296 2.186105
v 0.759467 2.855066 1.865328
v -0.271284 2.211209 2.558194
v 0.013192 1.592100 3.508177
v 0.759312 2.318844 2.781485
v -1.706303 -0.000001 6.710082
v -0.271284 2.862906 4.437014
v 0.222956 -0.000001 6.914493
v -0.619615 2.331296 2.186105
v -0.271284 2.211209 2.558194
v 0.759467 2.855066 1.865328
v -1.092638 0.405490 -3.650628
v -0.196278 0.864746 -2.642221
v 0.243229 0.864746 -4.278030
v -1.276434 1.845204 -0.244909
v -0.196278 0.864746 -2.642221
v 0.002271 4.496058 -0.296651
v -1.161190 0.000001 -6.914495
v -0.999619 0.868243 -4.955914
v 0.301763 0.502862 -5.234901
v -0.999619 0.868243 -4.955914
v 0.243229 0.864746 -4.278030
v 0.301763 0.502862 -5.234901
v -2.192408 0.864745 -1.842394
v -1.276434 1.845204 -0.244909
v -0.196278 0.864746 -2.642221
v -1.092638 0.405490 -3.650628
v -0.999619 0.868243 -4.955914
v 0.243229 0.864746 -4.278030
v -0.885871 2.330007 3.299083
v -0.271284 2.211209 2.558194
v 0.013192 1.592100 3.508177
v -0.885871 2.330007 3.299083
v -0.271284 2.862906 4.437014
v 0.013192 1.592100 3.508177
v -1.276434 1.845204 -0.244909
v -0.202117 4.014509 0.583907
v 0.002271 4.496058 -0.296651
v -0.980027 1.087943 1.970288
v -0.876320 2.186790 1.289819
v -0.619615 2.331296 2.186105
v -0.962031 2.442101 2.542909
v -0.885871 2.330007 3.299083
v -0.271284 2.211209 2.558194
v -2.995375 -0.000001 6.248616
v -1.706303 -0.000001 6.710082
v -0.271284 2.862906 4.437014
v -2.192408 0.864745 -1.842394
v -1.092638 0.405490 -3.650628
v -0.196278 0.864746 -2.642221
v -1.276434 1.845204 -0.244909
v -0.876320 2.186790 1.289819
v -0.202117 4.014509 0.583907
v -2.995375 -0.000001 6.248616
v -0.885871 2.330007 3.299083
v -0.271284 2.862906 4.437014
v -0.962031 2.442101 2.542909
v -0.619615 2.331296 2.186105
v -0.271284 2.211209 2.558194
v -1.464451 1.067972 1.259356
v -1.276434 1.845204 -0.244909
v -0.876320 2.186790 1.289819
v -2.995375 -0.000001 6.248616
v -2.463205 2.318844 2.691798
v -0.885871 2.330007 3.299083
v -0.980027 1.087943 1.970288
v -0.962031 2.442101 2.542909
v -0.619615 2.331296 2.186105
v -2.738441 0.721775 -4.734424
v -1.161190 0.000001 -6.914495
v -0.999619 0.868243 -4.955914
v -1.440202 2.369467 2.609101
v -0.962031 2.442101 2.542909
v -0.885871 2.330007 3.299083
v -1.464451 1.067972 1.259356
v -0.980027 1.087943 1.970288
v -0.876320 2.186790 1.289819
v -1.374583 1.212806 2.175699
v -0.980027 1.087943 1.970288
v -0.962031 2.442101 2.542909
v -2.738441 0.721775 -4.734424
v -1.092638 0.405490 -3.650628
v -0.999619 0.868243 -4.955914
v -1.662056 0.959174 1.664380
v -1.464451 1.067972 1.259356
v -0.980027 1.087943 1.970288
v -3.017693 0.282961 -3.425505
v -2.192408 0.864745 -1.842394
v -1.092638 0.405490 -3.650628
v -2.463205 2.318844 2.691798
v -1.440202 2.369467 2.609101
v -0.885871 2.330007 3.299083
v -2.517111 0.868242 0.856389
v -1.464451 1.067972 1.259356
v -1.276434 1.845204 -0.244909
v -1.440202 2.369467 2.609101
v -1.374583 1.212806 2.175699
v -0.962031 2.442101 2.542909
v -1.662056 0.959174 1.664380
v -1.374583 1.212806 2.175699
v -0.980027 1.087943 1.970288
v -4.523350 2.832224 4.234306
v -2.995375 -0.000001 6.248616
v -2.463205 2.318844 2.691798
v -3.835310 0.000001 -5.868093
v -2.738441 0.721775 -4.734424
v -1.161190 0.000001 -6.914495
v -3.017693 0.282961 -3.425505
v -2.738441 0.721775 -4.734424
v -1.092638 0.405490 -3.650628
v -3.300942 0.565017 -0.797082
v -2.192408 0.864745 -1.842394
v -1.276434 1.845204 -0.244909
v -4.523350 2.832224 4.234306
v -4.346996 -0.000001 5.407247
v -2.995375 -0.000001 6.248616
v -3.300942 0.565017 -0.797082
v -3.190916 0.565017 0.028122
v -1.276434 1.845204 -0.244909
v -3.190916 0.565017 0.028122
v -2.517111 0.868242 0.856389
v -1.276434 1.845204 -0.244909
v -1.840007 1.087943 2.041117
v -1.662056 0.959174 1.664380
v -1.374583 1.212806 2.175699
v -1.840007 1.087943 2.041117
v -1.440202 2.369467 2.609101
v -1.374583 1.212806 2.175699
v -2.463205 2.318844 2.691798
v -1.840007 1.087943 2.041117
v -1.440202 2.369467 2.609101
v -2.517111 0.868242 0.856389
v -1.662056 0.959174 1.664380
v -1.464451 1.067972 1.259356
v -2.517111 0.868242 0.856389
v -1.840007 1.087943 2.041117
v -1.662056 0.959174 1.664380
v -2.866275 1.087943 2.221418
v -2.517111 0.868242 0.856389
v -1.840007 1.087943 2.041117
v -3.300942 0.565017 -0.797082
v -3.025876 0.565017 -1.750649
v -2.192408 0.864745 -1.842394
v -3.025876 0.565017 -1.750649
v -3.017693 0.282961 -3.425505
v -2.192408 0.864745 -1.842394
v -2.866275 1.087943 2.221418
v -2.463205 2.318844 2.691798
v -1.840007 1.087943 2.041117
v -3.364319 0.565017 1.219614
v -2.866275 1.087943 2.221418
v -2.517111 0.868242 0.856389
v -4.523350 2.832224 4.234306
v -2.866275 1.087943 2.221418
v -2.463205 2.318844 2.691798
v -3.364319 0.565017 1.219614
v -3.190916 0.565017 0.028122
v -2.517111 0.868242 0.856389
v -4.085464 0.868243 -4.652305
v -3.017693 0.282961 -3.425505
v -2.738441 0.721775 -4.734424
v -4.085464 0.868243 -4.652305
v -3.835310 0.000001 -5.868093
v -2.738441 0.721775 -4.734424
v -4.019135 0.864745 -1.537937
v -3.025876 0.565017 -1.750649
v -3.017693 0.282961 -3.425505
v -5.455096 2.266522 1.570461
v -4.523350 2.832224 4.234306
v -2.866275 1.087943 2.221418
v -5.455096 2.266522 1.570461
v -3.364319 0.565017 1.219614
v -2.866275 1.087943 2.221418
v -4.019135 0.864745 -1.537937
v -3.300942 0.565017 -0.797082
v -3.025876 0.565017 -1.750649
v -6.091334 0.000001 -3.447865
v -4.019135 0.864745 -1.537937
v -3.017693 0.282961 -3.425505
v -6.091334 0.000001 -3.447865
v -4.085464 0.868243 -4.652305
v -3.017693 0.282961 -3.425505
v -5.455096 2.266522 1.570461
v -3.364319 0.565017 1.219614
v -3.190916 0.565017 0.028122
v -4.019135 0.864745 -1.537937
v -3.300942 0.565017 -0.797082
v -3.190916 0.565017 0.028122
v -5.455096 2.266522 1.570461
v -4.019135 0.864745 -1.537937
v -3.190916 0.565017 0.028122
v -5.902328 -0.000001 3.674454
v -5.455096 2.266522 1.570461
v -4.523350 2.832224 4.234306
v -6.946590 0.000000 -0.717376
v -5.455096 2.266522 1.570461
v -4.019135 0.864745 -1.537937
v -4.934703 0.000001 -4.974404
v -4.085464 0.868243 -4.652305
v -3.835310 0.000001 -5.868093
v -6.091334 0.000001 -3.447865
v -4.934703 0.000001 -4.974404
v -4.085464 0.868243 -4.652305
v -6.946590 0.000000 -0.717376
v -6.091334 0.000001 -3.447865
v -4.019135 0.864745 -1.537937
v -5.902328 -0.000001 3.674454
v -4.523350 2.832224 4.234306
v -4.346996 -0.000001 5.407247
v -6.686517 0.000000 1.951867
v -5.902328 -0.000001 3.674454
v -5.455096 2.266522 1.570461
v -6.946590 0.000000 -0.717376
v -6.686517 0.000000 1.951867
v -5.455096 2.266522 1.570461
vt 0.739926 0.942780
vt 0.588058 0.996534
vt 0.416420 0.997690
vt 0.889083 0.501686
vt 1.000000 0.490275
vt 0.982268 0.636030
vt 0.889083 0.501686
vt 0.975257 0.347215
vt 1.000000 0.490275
vt 0.834416 0.377405
vt 0.975257 0.347215
vt 0.889083 0.501686
vt 0.788856 0.647821
vt 0.982268 0.636030
vt 0.926261 0.765244
vt 0.788856 0.647821
vt 0.889083 0.501686
vt 0.982268 0.636030
vt 0.834416 0.377405
vt 0.935426 0.256871
vt 0.975257 0.347215
vt 0.807496 0.281988
vt 0.935426 0.256871
vt 0.834416 0.377405
vt 0.780475 0.742181
vt 0.788856 0.647821
vt 0.926261 0.765244
vt 0.807496 0.281988
vt 0.853018 0.149503
vt 0.935426 0.256871
vt 0.780475 0.742181
vt 0.926261 0.765244
vt 0.853018 0.858046
vt 0.692567 0.602114
vt 0.889083 0.501686
vt 0.788856 0.647821
vt 0.698936 0.436393
vt 0.834416 0.377405
vt 0.889083 0.501686
vt 0.692567 0.602114
vt 0.698936 0.436393
vt 0.889083 0.501686
vt 0.698936 0.436393
vt 0.760734 0.367177
vt 0.834416 0.377405
vt 0.710939 0.204709
vt 0.853018 0.149503
vt 0.807496 0.281988
vt 0.760734 0.367177
vt 0.807496 0.281988
vt 0.834416 0.377405
vt 0.739926 0.942780
vt 0.780475 0.742181
vt 0.853018 0.858046
vt 0.710939 0.204709
vt 0.761746 0.076451
vt 0.853018 0.149503
vt 0.689383 0.342581
vt 0.807496 0.281988
vt 0.760734 0.367177
vt 0.689383 0.342581
vt 0.710939 0.204709
vt 0.807496 0.281988
vt 0.517507 0.807923
vt 0.780475 0.742181
vt 0.739926 0.942780
vt 0.692567 0.602114
vt 0.788856 0.647821
vt 0.780475 0.742181
vt 0.517507 0.807923
vt 0.739926 0.942780
vt 0.521720 0.876796
vt 0.517507 0.807923
vt 0.583249 0.675108
vt 0.780475 0.742181
vt 0.583249 0.675108
vt 0.692567 0.602114
vt 0.780475 0.742181
vt 0.630048 0.019474
vt 0.761746 0.076451
vt 0.710939 0.204709
vt 0.689383 0.342581
vt 0.760734 0.367177
vt 0.698936 0.436393
vt 0.653455 0.336527
vt 0.710939 0.204709
vt 0.689383 0.342581
vt 0.521720 0.876796
vt 0.739926 0.942780
vt 0.588058 0.996534
vt 0.561736 0.208045
vt 0.630048 0.019474
vt 0.710939 0.204709
vt 0.644083 0.410058
vt 0.689383 0.342581
vt 0.698936 0.436393
vt 0.644083 0.410058
vt 0.698936 0.436393
vt 0.692567 0.602114
vt 0.500163 0.521352
vt 0.644083 0.410058
vt 0.692567 0.602114
vt 0.561736 0.208045
vt 0.710939 0.204709
vt 0.653455 0.336527
vt 0.554654 0.299795
vt 0.561736 0.208045
vt 0.653455 0.336527
vt 0.644083 0.410058
vt 0.653455 0.336527
vt 0.689383 0.342581
vt 0.500163 0.521352
vt 0.692567 0.602114
vt 0.583249 0.675108
vt 0.516048 0.002310
vt 0.630048 0.019474
vt 0.561736 0.208045
vt 0.485452 0.457972
vt 0.644083 0.410058
vt 0.500163 0.521352
vt 0.554665 0.365738
vt 0.653455 0.336527
vt 0.644083 0.410058
vt 0.480474 0.180634
vt 0.516048 0.002310
vt 0.561736 0.208045
vt 0.554654 0.299795
vt 0.653455 0.336527
vt 0.554665 0.365738
vt 0.485452 0.457972
vt 0.554665 0.365738
vt 0.644083 0.410058
vt 0.485872 0.690181
vt 0.583249 0.675108
vt 0.517507 0.807923
vt 0.485872 0.690181
vt 0.500163 0.521352
vt 0.583249 0.675108
vt 0.500949 0.247489
vt 0.561736 0.208045
vt 0.554654 0.299795
vt 0.416420 0.997690
vt 0.521720 0.876796
vt 0.588058 0.996534
vt 0.480474 0.315867
vt 0.554654 0.299795
vt 0.554665 0.365738
vt 0.436924 0.407162
vt 0.554665 0.365738
vt 0.485452 0.457972
vt 0.480474 0.180634
vt 0.561736 0.208045
vt 0.500949 0.247489
vt 0.436924 0.407162
vt 0.455401 0.342649
vt 0.554665 0.365738
vt 0.480474 0.315867
vt 0.500949 0.247489
vt 0.554654 0.299795
vt 0.377184 0.017023
vt 0.516048 0.002310
vt 0.480474 0.180634
vt 0.455401 0.342649
vt 0.480474 0.315867
vt 0.554665 0.365738
vt 0.421354 0.762764
vt 0.485872 0.690181
vt 0.517507 0.807923
vt 0.408125 0.517628
vt 0.500163 0.521352
vt 0.485872 0.690181
vt 0.416420 0.997690
vt 0.428050 0.856715
vt 0.521720 0.876796
vt 0.428050 0.856715
vt 0.517507 0.807923
vt 0.521720 0.876796
vt 0.342195 0.632611
vt 0.408125 0.517628
vt 0.485872 0.690181
vt 0.421354 0.762764
vt 0.517507 0.807923
vt 0.428050 0.856715
vt 0.436237 0.262539
vt 0.500949 0.247489
vt 0.480474 0.315867
vt 0.436237 0.262539
vt 0.480474 0.180634
vt 0.500949 0.247489
vt 0.408125 0.517628
vt 0.485452 0.457972
vt 0.500163 0.521352
vt 0.429460 0.358183
vt 0.455401 0.342649
vt 0.436924 0.407162
vt 0.430755 0.316967
vt 0.436237 0.262539
vt 0.480474 0.315867
vt 0.284400 0.050238
vt 0.377184 0.017023
vt 0.480474 0.180634
vt 0.342195 0.632611
vt 0.485872 0.690181
vt 0.421354 0.762764
vt 0.408125 0.517628
vt 0.436924 0.407162
vt 0.485452 0.457972
vt 0.284400 0.050238
vt 0.480474 0.180634
vt 0.436237 0.262539
vt 0.430755 0.316967
vt 0.480474 0.315867
vt 0.455401 0.342649
vt 0.394592 0.409354
vt 0.436924 0.407162
vt 0.408125 0.517628
vt 0.284400 0.050238
vt 0.436237 0.262539
vt 0.322704 0.306250
vt 0.429460 0.358183
vt 0.430755 0.316967
vt 0.455401 0.342649
vt 0.302893 0.840773
vt 0.428050 0.856715
vt 0.416420 0.997690
vt 0.396338 0.312203
vt 0.436237 0.262539
vt 0.430755 0.316967
vt 0.394592 0.409354
vt 0.429460 0.358183
vt 0.436924 0.407162
vt 0.401061 0.343398
vt 0.430755 0.316967
vt 0.429460 0.358183
vt 0.302893 0.840773
vt 0.421354 0.762764
vt 0.428050 0.856715
vt 0.380369 0.380202
vt 0.429460 0.358183
vt 0.394592 0.409354
vt 0.282793 0.746560
vt 0.342195 0.632611
vt 0.421354 0.762764
vt 0.322704 0.306250
vt 0.436237 0.262539
vt 0.396338 0.312203
vt 0.318824 0.438359
vt 0.394592 0.409354
vt 0.408125 0.517628
vt 0.396338 0.312203
vt 0.430755 0.316967
vt 0.401061 0.343398
vt 0.380369 0.380202
vt 0.401061 0.343398
vt 0.429460 0.358183
vt 0.174419 0.195224
vt 0.284400 0.050238
vt 0.322704 0.306250
vt 0.223943 0.922372
vt 0.302893 0.840773
vt 0.416420 0.997690
vt 0.282793 0.746560
vt 0.421354 0.762764
vt 0.302893 0.840773
vt 0.262406 0.557372
vt 0.408125 0.517628
vt 0.342195 0.632611
vt 0.174419 0.195224
vt 0.187113 0.110798
vt 0.284400 0.050238
vt 0.262406 0.557372
vt 0.270325 0.497976
vt 0.408125 0.517628
vt 0.270325 0.497976
vt 0.318824 0.438359
vt 0.408125 0.517628
vt 0.367560 0.353085
vt 0.401061 0.343398
vt 0.380369 0.380202
vt 0.367560 0.353085
vt 0.396338 0.312203
vt 0.401061 0.343398
vt 0.322704 0.306250
vt 0.396338 0.312203
vt 0.367560 0.353085
vt 0.318824 0.438359
vt 0.380369 0.380202
vt 0.394592 0.409354
vt 0.318824 0.438359
vt 0.367560 0.353085
vt 0.380369 0.380202
vt 0.293692 0.340107
vt 0.367560 0.353085
vt 0.318824 0.438359
vt 0.262406 0.557372
vt 0.342195 0.632611
vt 0.282204 0.626008
vt 0.282204 0.626008
vt 0.342195 0.632611
vt 0.282793 0.746560
vt 0.293692 0.340107
vt 0.322704 0.306250
vt 0.367560 0.353085
vt 0.257844 0.412215
vt 0.293692 0.340107
vt 0.318824 0.438359
vt 0.174419 0.195224
vt 0.322704 0.306250
vt 0.293692 0.340107
vt 0.257844 0.412215
vt 0.318824 0.438359
vt 0.270325 0.497976
vt 0.205937 0.834862
vt 0.282793 0.746560
vt 0.302893 0.840773
vt 0.205937 0.834862
vt 0.302893 0.840773
vt 0.223943 0.922372
vt 0.210712 0.610697
vt 0.282204 0.626008
vt 0.282793 0.746560
vt 0.107354 0.386962
vt 0.174419 0.195224
vt 0.293692 0.340107
vt 0.107354 0.386962
vt 0.293692 0.340107
vt 0.257844 0.412215
vt 0.210712 0.610697
vt 0.262406 0.557372
vt 0.282204 0.626008
vt 0.061559 0.748169
vt 0.210712 0.610697
vt 0.282793 0.746560
vt 0.061559 0.748169
vt 0.282793 0.746560
vt 0.205937 0.834862
vt 0.107354 0.386962
vt 0.257844 0.412215
vt 0.270325 0.497976
vt 0.210712 0.610697
vt 0.270325 0.497976
vt 0.262406 0.557372
vt 0.107354 0.386962
vt 0.270325 0.497976
vt 0.210712 0.610697
vt 0.075164 0.235521
vt 0.174419 0.195224
vt 0.107354 0.386962
vt 0.000000 0.551635
vt 0.107354 0.386962
vt 0.210712 0.610697
vt 0.144811 0.858046
vt 0.205937 0.834862
vt 0.223943 0.922372
vt 0.061559 0.748169
vt 0.205937 0.834862
vt 0.144811 0.858046
vt 0.000000 0.551635
vt 0.210712 0.610697
vt 0.061559 0.748169
vt 0.075164 0.235521
vt 0.187113 0.110798
vt 0.174419 0.195224
vt 0.018720 0.359509
vt 0.075164 0.235521
vt 0.107354 0.386962
vt 0.000000 0.551635
vt 0.018720 0.359509
vt 0.107354 0.386962
vn 0.000000 1.000000 0.000000
vn 0.000000 1.000000 0.000000
vn 0.000000 1.000000 0.000000
vn 0.845418 0.524108 -0.102851
vn 0.845418 0.524108 -0.102851
vn 0.845418 0.524108 -0.102851
vn 0.833856 0.532808 0.144220
vn 0.833856 0.532808 0.144220
vn 0.833856 0.532808 0.144220
vn 0.804808 0.561282 0.192992
vn 0.804808 0.561282 0.192992
vn 0.804808 0.561282 0.192992
vn 0.754251 0.569410 -0.326921
vn 0.754251 0.569410 -0.326921
vn 0.754251 0.569410 -0.326921
vn 0.773069 0.588235 -0.237369
vn 0.773069 0.588235 -0.237369
vn 0.773069 0.588235 -0.237369
vn 0.762171 0.553338 0.336026
vn 0.762171 0.553338 0.336026
vn 0.762171 0.553338 0.336026
vn 0.830518 0.515227 0.211615
vn 0.830518 0.515227 0.211615
vn 0.830518 0.515227 0.211615
vn 0.049952 0.447795 -0.892740
vn 0.049952 0.447795 -0.892740
vn 0.049952 0.447795 -0.892740
vn 0.698212 0.474674 0.535896
vn 0.698212 0.474674 0.535896
vn 0.698212 0.474674 0.535896
vn 0.341704 0.900282 -0.269686
vn 0.341704 0.900282 -0.269686
vn 0.341704 0.900282 -0.269686
vn -0.431426 0.653959 0.621457
vn -0.431426 0.653959 0.621457
vn -0.431426 0.653959 0.621457
vn -0.082067 0.947839 -0.308004
vn -0.082067 0.947839 -0.308004
vn -0.082067 0.947839 -0.308004
vn -0.053494 0.972520 -0.226589
vn -0.053494 0.972520 -0.226589
vn -0.053494 0.972520 -0.226589
vn -0.242965 0.968714 0.050599
vn -0.242965 0.968714 0.050599
vn -0.242965 0.968714 0.050599
vn 0.666193 0.486108 0.565585
vn 0.666193 0.486108 0.565585
vn 0.666193 0.486108 0.565585
vn -0.263304 0.957656 -0.116477
vn -0.263304 0.957656 -0.116477
vn -0.263304 0.957656 -0.116477
vn 0.249191 0.909554 -0.332589
vn 0.249191 0.909554 -0.332589
vn 0.249191 0.909554 -0.332589
vn 0.556814 0.453833 0.695697
vn 0.556814 0.453833 0.695697
vn 0.556814 0.453833 0.695697
vn -0.254474 0.959380 -0.121793
vn -0.254474 0.959380 -0.121793
vn -0.254474 0.959380 -0.121793
vn -0.025656 0.862487 -0.505429
vn -0.025656 0.862487 -0.505429
vn -0.025656 0.862487 -0.505429
vn 0.077425 0.947678 -0.309698
vn 0.077425 0.947678 -0.309698
vn 0.077425 0.947678 -0.309698
vn -0.689841 0.350279 -0.633581
vn -0.689841 0.350279 -0.633581
vn -0.689841 0.350279 -0.633581
vn 0.049081 0.935205 -0.350688
vn 0.049081 0.935205 -0.350688
vn 0.049081 0.935205 -0.350688
vn 0.164864 0.733445 -0.659453
vn 0.164864 0.733445 -0.659453
vn 0.164864 0.733445 -0.659453
vn 0.378029 0.885560 -0.269960
vn 0.378029 0.885560 -0.269960
vn 0.378029 0.885560 -0.269960
vn 0.350475 0.470011 0.810097
vn 0.350475 0.470011 0.810097
vn 0.350475 0.470011 0.810097
vn -0.209802 0.977550 0.019474
vn -0.209802 0.977550 0.019474
vn -0.209802 0.977550 0.019474
vn 0.137331 0.843310 -0.519585
vn 0.137331 0.843310 -0.519585
vn 0.137331 0.843310 -0.519585
vn 0.086401 0.965892 -0.244105
vn 0.086401 0.965892 -0.244105
vn 0.086401 0.965892 -0.244105
vn -0.466098 0.606427 0.644204
vn -0.466098 0.606427 0.644204
vn -0.466098 0.606427 0.644204
vn 0.149880 0.987088 0.056502
vn 0.149880 0.987088 0.056502
vn 0.149880 0.987088 0.056502
vn 0.010975 0.973305 -0.229252
vn 0.010975 0.973305 -0.229252
vn 0.010975 0.973305 -0.229252
vn 0.685363 0.728202 -0.000577
vn 0.685363 0.728202 -0.000577
vn 0.685363 0.728202 -0.000577
vn -0.585490 0.791335 -0.176040
vn -0.585490 0.791335 -0.176040
vn -0.585490 0.791335 -0.176040
vn -0.119712 0.970104 0.211111
vn -0.119712 0.970104 0.211111
vn -0.119712 0.970104 0.211111
vn 0.254909 0.966811 -0.017235
vn 0.254909 0.966811 -0.017235
vn 0.254909 0.966811 -0.017235
vn 0.484819 0.729824 -0.481982
vn 0.484819 0.729824 -0.481982
vn 0.484819 0.729824 -0.481982
vn 0.089459 0.799349 0.594170
vn 0.089459 0.799349 0.594170
vn 0.089459 0.799349 0.594170
vn 0.345517 0.787259 0.510726
vn 0.345517 0.787259 0.510726
vn 0.345517 0.787259 0.510726
vn 0.185524 0.982606 -0.008143
vn 0.185524 0.982606 -0.008143
vn 0.185524 0.982606 -0.008143
vn 0.601127 0.579755 0.550028
vn 0.601127 0.579755 0.550028
vn 0.601127 0.579755 0.550028
vn 0.011474 0.862984 0.505102
vn 0.011474 0.862984 0.505102
vn 0.011474 0.862984 0.505102
vn 0.378515 0.809652 0.448542
vn 0.378515 0.809652 0.448542
vn 0.378515 0.809652 0.448542
vn -0.705042 0.683397 -0.189430
vn -0.705042 0.683397 -0.189430
vn -0.705042 0.683397 -0.189430
vn -0.428624 0.506634 -0.748067
vn -0.428624 0.506634 -0.748067
vn -0.428624 0.506634 -0.748067
vn -0.570008 0.794525 0.209335
vn -0.570008 0.794525 0.209335
vn -0.570008 0.794525 0.209335
vn 0.001942 0.957518 -0.288367
vn 0.001942 0.957518 -0.288367
vn 0.001942 0.957518 -0.288367
vn -0.195715 0.846365 0.495340
vn -0.195715 0.846365 0.495340
vn -0.195715 0.846365 0.495340
vn -0.456307 0.462033 0.760467
vn -0.456307 0.462033 0.760467
vn -0.456307 0.462033 0.760467
vn 0.172603 0.606124 -0.776416
vn 0.172603 0.606124 -0.776416
vn 0.172603 0.606124 -0.776416
vn -0.363961 0.930290 -0.045746
vn -0.363961 0.930290 -0.045746
vn -0.363961 0.930290 -0.045746
vn -0.207511 0.789968 0.576966
vn -0.207511 0.789968 0.576966
vn -0.207511 0.789968 0.576966
vn -0.080583 0.644252 0.760556
vn -0.080583 0.644252 0.760556
vn -0.080583 0.644252 0.760556
vn -0.213569 0.853466 0.475378
vn -0.213569 0.853466 0.475378
vn -0.213569 0.853466 0.475378
vn -0.364360 0.926098 -0.097896
vn -0.364360 0.926098 -0.097896
vn -0.364360 0.926098 -0.097896
vn -0.782342 0.367567 -0.502828
vn -0.782342 0.367567 -0.502828
vn -0.782342 0.367567 -0.502828
vn 0.163668 0.896799 -0.411054
vn 0.163668 0.896799 -0.411054
vn 0.163668 0.896799 -0.411054
vn 0.186684 0.922624 -0.337512
vn 0.186684 0.922624 -0.337512
vn 0.186684 0.922624 -0.337512
vn -0.176135 0.880765 -0.439578
vn -0.176135 0.880765 -0.439578
vn -0.176135 0.880765 -0.439578
vn -0.171026 0.932410 0.318372
vn -0.171026 0.932410 0.318372
vn -0.171026 0.932410 0.318372
vn 0.550411 0.765227 0.333880
vn 0.550411 0.765227 0.333880
vn 0.550411 0.765227 0.333880
vn 0.592753 0.557512 -0.581227
vn 0.592753 0.557512 -0.581227
vn 0.592753 0.557512 -0.581227
vn -0.900092 0.434744 0.028826
vn -0.900092 0.434744 0.028826
vn -0.900092 0.434744 0.028826
vn -0.944134 0.233269 0.232800
vn -0.944134 0.233269 0.232800
vn -0.944134 0.233269 0.232800
vn 0.312999 0.943553 0.108346
vn 0.312999 0.943553 0.108346
vn 0.312999 0.943553 0.108346
vn -0.248475 0.675640 0.694097
vn -0.248475 0.675640 0.694097
vn -0.248475 0.675640 0.694097
vn -0.126534 0.940355 -0.315789
vn -0.126534 0.940355 -0.315789
vn -0.126534 0.940355 -0.315789
vn -0.907585 0.392438 0.149268
vn -0.907585 0.392438 0.149268
vn -0.907585 0.392438 0.149268
vn -0.707002 0.705332 0.051535
vn -0.707002 0.705332 0.051535
vn -0.707002 0.705332 0.051535
vn 0.316819 0.948438 0.009507
vn 0.316819 0.948438 0.009507
vn 0.316819 0.948438 0.009507
vn -0.879391 0.458809 0.127146
vn -0.879391 0.458809 0.127146
vn -0.879391 0.458809 0.127146
vn -0.203473 0.833824 0.513163
vn -0.203473 0.833824 0.513163
vn -0.203473 0.833824 0.513163
vn -0.637091 0.307367 -0.706853
vn -0.637091 0.307367 -0.706853
vn -0.637091 0.307367 -0.706853
vn -0.126798 0.910653 -0.393234
vn -0.126798 0.910653 -0.393234
vn -0.126798 0.910653 -0.393234
vn -0.126886 0.979262 0.157944
vn -0.126886 0.979262 0.157944
vn -0.126886 0.979262 0.157944
vn -0.766371 0.388939 0.511274
vn -0.766371 0.388939 0.511274
vn -0.766371 0.388939 0.511274
vn -0.333796 0.370893 -0.866613
vn -0.333796 0.370893 -0.866613
vn -0.333796 0.370893 -0.866613
vn -0.037174 0.942702 0.331560
vn -0.037174 0.942702 0.331560
vn -0.037174 0.942702 0.331560
vn -0.243574 0.959869 0.139005
vn -0.243574 0.959869 0.139005
vn -0.243574 0.959869 0.139005
vn -0.095416 0.949419 -0.299165
vn -0.095416 0.949419 -0.299165
vn -0.095416 0.949419 -0.299165
vn -0.041915 0.995007 0.090579
vn -0.041915 0.995007 0.090579
vn -0.041915 0.995007 0.090579
vn -0.317351 0.858089 0.403697
vn -0.317351 0.858089 0.403697
vn -0.317351 0.858089 0.403697
vn -0.179068 0.336282 -0.924580
vn -0.179068 0.336282 -0.924580
vn -0.179068 0.336282 -0.924580
vn 0.039906 0.886018 -0.461931
vn 0.039906 0.886018 -0.461931
vn 0.039906 0.886018 -0.461931
vn 0.548479 0.660539 0.512697
vn 0.548479 0.660539 0.512697
vn 0.548479 0.660539 0.512697
vn -0.161899 0.895884 -0.413740
vn -0.161899 0.895884 -0.413740
vn -0.161899 0.895884 -0.413740
vn -0.023801 0.949388 0.313204
vn -0.023801 0.949388 0.313204
vn -0.023801 0.949388 0.313204
vn -0.467066 0.847457 -0.252319
vn -0.467066 0.847457 -0.252319
vn -0.467066 0.847457 -0.252319
vn -0.503515 0.303636 0.808874
vn -0.503515 0.303636 0.808874
vn -0.503515 0.303636 0.808874
vn -0.547170 0.833836 0.072955
vn -0.547170 0.833836 0.072955
vn -0.547170 0.833836 0.072955
vn -0.537798 0.832564 0.132707
vn -0.537798 0.832564 0.132707
vn -0.537798 0.832564 0.132707
vn -0.136539 0.915872 -0.377540
vn -0.136539 0.915872 -0.377540
vn -0.136539 0.915872 -0.377540
vn 0.170838 0.354204 -0.919431
vn 0.170838 0.354204 -0.919431
vn 0.170838 0.354204 -0.919431
vn -0.093841 0.427731 -0.899022
vn -0.093841 0.427731 -0.899022
vn -0.093841 0.427731 -0.899022
vn -0.236915 0.961014 0.142561
vn -0.236915 0.961014 0.142561
vn -0.236915 0.961014 0.142561
vn 0.143081 0.955243 -0.258919
vn 0.143081 0.955243 -0.258919
vn 0.143081 0.955243 -0.258919
vn -0.029183 0.985676 -0.166109
vn -0.029183 0.985676 -0.166109
vn -0.029183 0.985676 -0.166109
vn -0.346427 0.932739 -0.099930
vn -0.346427 0.932739 -0.099930
vn -0.346427 0.932739 -0.099930
vn -0.349471 0.923656 -0.157257
vn -0.349471 0.923656 -0.157257
vn -0.349471 0.923656 -0.157257
vn -0.158787 0.397381 -0.903811
vn -0.158787 0.397381 -0.903811
vn -0.158787 0.397381 -0.903811
vn -0.418885 0.873587 -0.247751
vn -0.418885 0.873587 -0.247751
vn -0.418885 0.873587 -0.247751
vn -0.463205 0.444645 -0.766636
vn -0.463205 0.444645 -0.766636
vn -0.463205 0.444645 -0.766636
vn -0.356149 0.932990 -0.051832
vn -0.356149 0.932990 -0.051832
vn -0.356149 0.932990 -0.051832
vn 0.122093 0.932902 0.338803
vn 0.122093 0.932902 0.338803
vn 0.122093 0.932902 0.338803
vn 0.053998 0.817824 -0.572930
vn 0.053998 0.817824 -0.572930
vn 0.053998 0.817824 -0.572930
vn 0.253751 0.954041 -0.159426
vn 0.253751 0.954041 -0.159426
vn 0.253751 0.954041 -0.159426
vn 0.458891 0.822818 -0.335245
vn 0.458891 0.822818 -0.335245
vn 0.458891 0.822818 -0.335245
vn 0.453912 0.677175 -0.579136
vn 0.453912 0.677175 -0.579136
vn 0.453912 0.677175 -0.579136
vn 0.304997 0.948281 0.087979
vn 0.304997 0.948281 0.087979
vn 0.304997 0.948281 0.087979
vn -0.084001 0.938845 -0.333936
vn -0.084001 0.938845 -0.333936
vn -0.084001 0.938845 -0.333936
vn -0.083562 0.869174 0.487396
vn -0.083562 0.869174 0.487396
vn -0.083562 0.869174 0.487396
vn 0.637806 0.764584 0.092823
vn 0.637806 0.764584 0.092823
vn 0.637806 0.764584 0.092823
vn 0.434842 0.898638 -0.057978
vn 0.434842 0.898638 -0.057978
vn 0.434842 0.898638 -0.057978
vn 0.539648 0.832396 -0.126084
vn 0.539648 0.832396 -0.126084
vn 0.539648 0.832396 -0.126084
vn -0.892189 0.389041 0.229447
vn -0.892189 0.389041 0.229447
vn -0.892189 0.389041 0.229447
vn -0.372706 0.769200 -0.519058
vn -0.372706 0.769200 -0.519058
vn -0.372706 0.769200 -0.519058
vn -0.467726 0.670944 -0.575384
vn -0.467726 0.670944 -0.575384
vn -0.467726 0.670944 -0.575384
vn -0.562574 0.708392 -0.426252
vn -0.562574 0.708392 -0.426252
vn -0.562574 0.708392 -0.426252
vn -0.306648 0.946965 -0.096049
vn -0.306648 0.946965 -0.096049
vn -0.306648 0.946965 -0.096049
vn -0.725204 0.224422 0.650933
vn -0.725204 0.224422 0.650933
vn -0.725204 0.224422 0.650933
vn -0.792668 0.491387 0.360854
vn -0.792668 0.491387 0.360854
vn -0.792668 0.491387 0.360854
vn -0.869479 0.486651 0.084716
vn -0.869479 0.486651 0.084716
vn -0.869479 0.486651 0.084716
f 3/1/1 2/2/2 1/3/3
f 4/4/4 6/5/5 5/6/6
f 7/7/7 8/8/8 9/9/9
f 10/10/10 12/11/11 11/12/12
f 13/13/13 15/14/14 14/15/15
f 16/16/16 17/17/17 18/18/18
f 19/19/19 20/20/20 21/21/21
f 22/22/22 24/23/23 23/24/24
f 25/25/25 26/26/26 27/27/27
f 28/28/28 29/29/29 30/30/30
f 31/31/31 33/32/32 32/33/33
f 34/34/34 36/35/35 35/36/36
f 37/37/37 38/38/38 39/39/39
f 40/40/40 41/41/41 42/42/42
f 43/43/43 44/44/44 45/45/45
f 46/46/46 48/47/47 47/48/48
f 49/49/49 50/50/50 51/51/51
f 52/52/52 53/53/53 54/54/54
f 55/55/55 56/56/56 57/57/57
f 58/58/58 60/59/59 59/60/60
f 61/61/61 62/62/62 63/63/63
f 64/64/64 66/65/65 65/66/66
f 67/67/67 69/68/68 68/69/69
f 70/70/70 72/71/71 71/72/72
f 73/73/73 74/74/74 75/75/75
f 76/76/76 77/77/77 78/78/78
f 79/79/79 81/80/80 80/81/81
f 82/82/82 84/83/83 83/84/84
f 85/85/85 87/86/86 86/87/87
f 88/88/88 90/89/89 89/90/90
f 91/91/91 92/92/92 93/93/93
f 94/94/94 95/95/95 96/96/96
f 97/97/97 99/98/98 98/99/99
f 100/100/100 101/101/101 102/102/102
f 103/103/103 105/104/104 104/105/105
f 106/106/106 107/107/107 108/108/108
f 109/109/109 110/110/110 111/111/111
f 112/112/112 114/113/113 113/114/114
f 115/115/115 117/116/116 116/117/117
f 118/118/118 120/119/119 119/120/120
f 121/121/121 123/122/122 122/123/123
f 124/124/124 125/125/125 126/126/126
f 127/127/127 129/128/128 128/129/129
f 130/130/130 131/131/131 132/132/132
f 133/133/133 135/134/134 134/135/135
f 136/136/136 137/137/137 138/138/138
f 139/139/139 141/140/140 140/141/141
f 142/142/142 143/143/143 144/144/144
f 145/145/145 146/146/146 147/147/147
f 148/148/148 150/149/149 149/150/150
f 151/151/151 153/152/152 152/153/153
f 154/154/154 155/155/155 156/156/156
f 157/157/157 158/158/158 159/159/159
f 160/160/160 162/161/161 161/162/162
f 163/163/163 164/164/164 165/165/165
f 166/166/166 167/167/167 168/168/168
f 169/169/169 171/170/170 170/171/171
f 172/172/172 173/173/173 174/174/174
f 175/175/175 176/176/176 177/177/177
f 178/178/178 179/179/179 180/180/180
f 181/181/181 183/182/182 182/183/183
f 184/184/184 186/185/185 185/186/186
f 187/187/187 188/188/188 189/189/189
f 190/190/190 191/191/191 192/192/192
f 193/193/193 195/194/194 194/195/195
f 196/196/196 197/197/197 198/198/198
f 199/199/199 200/200/200 201/201/201
f 202/202/202 204/203/203 203/204/204
f 205/205/205 206/206/206 207/207/207
f 208/208/208 210/209/209 209/210/210
f 211/211/211 213/212/212 212/213/213
f 214/214/214 216/215/215 215/216/216
f 217/217/217 219/218/218 218/219/219
f 220/220/220 221/221/221 222/222/222
f 223/223/223 225/224/224 224/225/225
f 226/226/226 228/227/227 227/228/228
f 229/229/229 230/230/230 231/231/231
f 232/232/232 234/233/233 233/234/234
f 235/235/235 236/236/236 237/237/237
f 238/238/238 240/239/239 239/240/240
f 241/241/241 242/242/242 243/243/243
f 244/244/244 246/245/245 245/246/246
f 247/247/247 248/248/248 249/249/249
f 250/250/250 252/251/251 251/252/252
f 253/253/253 254/254/254 255/255/255
f 256/256/256 257/257/257 258/258/258
f 259/259/259 260/260/260 261/261/261
f 262/262/262 264/263/263 263/264/264
f 265/265/265 267/266/266 266/267/267
f 268/268/268 269/269/269 270/270/270
f 271/271/271 272/272/272 273/273/273
f 274/274/274 275/275/275 276/276/276
f 277/277/277 279/278/278 278/279/279
f 280/280/280 281/281/281 282/282/282
f 283/283/283 285/284/284 284/285/285
f 286/286/286 287/287/287 288/288/288
f 289/289/289 290/290/290 291/291/291
f 292/292/292 294/293/293 293/294/294
f 295/295/295 297/296/296 296/297/297
f 298/298/298 300/299/299 299/300/300
f 301/301/301 302/302/302 303/303/303
f 304/304/304 305/305/305 306/306/306
f 307/307/307 309/308/308 308/309/309
f 310/310/310 312/311/311 311/312/312
f 313/313/313 314/314/314 315/315/315
f 316/316/316 318/317/317 317/318/318
f 319/319/319 320/320/320 321/321/321
f 322/322/322 323/323/323 324/324/324
f 325/325/325 327/326/326 326/327/327
f 328/328/328 329/329/329 330/330/330
f 331/331/331 332/332/332 333/333/333
f 334/334/334 336/335/335 335/336/336
f 337/337/337 338/338/338 339/339/339
f 340/340/340 342/341/341 341/342/342
f 343/343/343 345/344/344 344/345/345
f 346/346/346 348/347/347 347/348/348
f 349/349/349 350/350/350 351/351/351
f 352/352/352 353/353/353 354/354/354
f 355/355/355 357/356/356 356/357/357
f 358/358/358 360/359/359 359/360/360
f 361/361/361 363/362/362 362/363/363
f 364/364/364 365/365/365 366/366/366
f 367/367/367 368/368/368 369/369/369
v -9.000000 -0.000000 9.000000
v 9.000000 -0.000000 9.000000
v -9.000000 0.000000 -9.000000
v 9.000000 0.000000 -9.000000
vt 0.000000 0.000000
vt 1.000000 0.000000
vt 0.000000 1.000000
vt 1.000000 1.000000
vn 0.000000 1.000000 0.000000
vn 0.000000 1.000000 0.000000
vn 0.000000 1.000000 0.000000
vn 0.000000 1.000000 0.000000
f 370/370/370 371/371/371 373/373/372 372/372/373
